[
    {
      "Facility_ID": 1,
      "Facility_Name": "SOUTHEAST HEALTH MEDICAL CENTER",
      "Address": "1108 ROSS CLARK CIRCLE",
      "City_or_Town": "DOTHAN",
      "State": "AL",
      "ZIP_Code": 36301,
      "County_or_Parish": "HOUSTON",
      "Hospital_Type": "Acute Care Hositals",
      "Hospital_Ownership": "Government - Hospital District or Authority",
      "Emergency_Services": "Yes",
      "Hospital_overall_rating": "3",
      "Description": "Southeast Health is a not-for-profit community health system dedicated to improving the health and quality of life of the residents of southeast Alabama, southwest Georgia and the Florida Panhandle. Through advanced treatment and technology, it provides for the changing healthcare needs of the growing communities it serves since 1957. The progress of Southeast Health represents the distinguished service of dedicated board members, physicians, employees and volunteers, and a supportive community.",
      "state_data": 
        {
          "name": "Alabama State Data",
          "href": "/demographics/Alabama"
        },
      "organizations": 
        {
          "name": "Organization in Alabama",
          "href": "/demographics/1"
        }
    },
    {
      "Facility_ID": 2,
      "Facility_Name": "MARSHALL MEDICAL CENTERS",
      "Address": "2505 U S HIGHWAY 431 NORTH",
      "City_or_Town": "BOAZ",
      "State": "AL",
      "ZIP_Code": 35957,
      "County_or_Parish": "MARSHALL",
      "Hospital_Type": "Acute Care Hospitals",
      "Hospital_Ownership": "Government - Hospital District or Authority",
      "Emergency_Services": "Yes",
      "Hospital_overall_rating": "2",
      "Description": "A community hospital that delivers world-class healthcare while keeping you close to home is the best of all worlds. That’s exactly what Marshall Medical North is to the residents of Marshall County and surrounding areas. It means highly-skilled doctors who also are your neighbors and friends. It means caring and compassionate nurses you run into in the grocery store and at church. It means the most modern equipment and technology acquired by leadership dedicated to protecting the health of their families and co-workers.",
      "state_data": 
      {
        "name": "Alabama State Data",
        "href": "/demographics/Alabama"
      },
      "organizations": 
      {
        "name": "Organization in Alabama",
        "href": "/demographics/1"
      }
    },
    {
      "Facility_ID": 3,
      "Facility_Name": "NORTH ALABAMA MEDICAL CENTER",
      "Address": "1701 VETERANS DRIVE",
      "City_or_Town": "FLORENCE",
      "State": "AL",
      "ZIP_Code": 35630,
      "County_or_Parish": "LAUDERDALE",
      "Hospital_Type": "Acute Care Hospitals",
      "Hospital_Ownership": "Proprietary",
      "Emergency_Services": "Yes",
      "Hospital_overall_rating": "1",
      "Description": "North Alabama Medical Center, opened its doors in 2018, as the replacement facility for Eliza Coffee Memorial Hospital, in Florence, Alabama. North Alabama Medical Center serves as a regional facility with more than 200 physicians on staff who represent more than 42 specialty areas of medicine.",
      "state_data": 
      {
        "name": "Alabama State Data",
        "href": "/demographics/Alabama"
      },
      "organizations": 
      {
        "name": "Organization in Alabama",
        "href": "/demographics/1"
      }
    }
]